{
    "code": 200,
    "message": "查询成功!",
    "page": {
        "pageNum": 0,
        "pageSize": 8,
        "size": 8,
        "startRow": 1,
        "endRow": 8,
        "total": 142,
        "pages": 18,
        "navigateFgateFirstPage": 1,
        "navigateLateLastPage": 8,
        "lastPage": 1,
        "firstPage": 8
    },
    "data": [
        {
            "id": 299,
            "applyTime": null,
            "images": "http://a.renlairenwang.com/@/default/all/0/df818d3b77b54a1ab50b2906b1e1e4ce.png?e=1548325495&token=2AhnhkQR1HJCFA2_2EcYNi515fzL1tLagon38laH:UHrDXlxeEzCpRncAq7YPs51QOFk=",
            "runingTime": null,
            "url": null,
            "storeId": 146,
            "status": 2,
            "unitPrice": null,
            "countPrice": null,
            "outTime": null,
            "adverType": "1",
            "bayNumber": null,
            "remark": null,
            "storeName": "沙县小吃",
            "storeType": "公司",
            "localtion": "0",
            "playstatus": null,
            "sid": null,
            "storeMerchantNum": "146",
            "commodityTypeId": null,
            "ticket": 0.0,
            "countTicket": 0.0,
            "putawayTime": null,
            "commodityId": null,
            "commodityName": null,
            "newRetail": 0,
            "typeManageFirstTrade": "美食餐饮",
            "storeFirsttrade": "1",
            "isPlatform": 0,
            "urlType": null,
            "storeArea": "四川省成都市武侯区"
        },
        {
            "id": 301,
            "applyTime": null,
            "images": "http://a.renlairenwang.com/@/default/all/0/8c930249a52b4fa185252aa53109d6e5.png?e=1548325536&token=2AhnhkQR1HJCFA2_2EcYNi515fzL1tLagon38laH:ChXYWAp9YplqJ5U70BZRttqPzVs=",
            "runingTime": null,
            "url": null,
            "storeId": 146,
            "status": 2,
            "unitPrice": null,
            "countPrice": null,
            "outTime": null,
            "adverType": "1",
            "bayNumber": null,
            "remark": null,
            "storeName": "沙县小吃",
            "storeType": "公司",
            "localtion": "0",
            "playstatus": null,
            "sid": null,
            "storeMerchantNum": "146",
            "commodityTypeId": null,
            "ticket": 0.0,
            "countTicket": 0.0,
            "putawayTime": null,
            "commodityId": null,
            "commodityName": null,
            "newRetail": 0,
            "typeManageFirstTrade": "美食餐饮",
            "storeFirsttrade": "1",
            "isPlatform": 0,
            "urlType": null,
            "storeArea": "四川省成都市武侯区"
        },
        {
            "id": 303,
            "applyTime": null,
            "images": "http://a.renlairenwang.com/@/default/all/0/b219ba4de5934664b5486965d44ee567.png?e=1548391436&token=2AhnhkQR1HJCFA2_2EcYNi515fzL1tLagon38laH:0d4CTiUy_GtNWGsLBdEC7cm4TyQ=",
            "runingTime": null,
            "url": null,
            "storeId": 150,
            "status": 2,
            "unitPrice": null,
            "countPrice": null,
            "outTime": null,
            "adverType": "1",
            "bayNumber": null,
            "remark": null,
            "storeName": "大唐酒楼",
            "storeType": "公司",
            "localtion": "0",
            "playstatus": null,
            "sid": null,
            "storeMerchantNum": "150",
            "commodityTypeId": null,
            "ticket": 0.0,
            "countTicket": 0.0,
            "putawayTime": null,
            "commodityId": null,
            "commodityName": null,
            "newRetail": 0,
            "typeManageFirstTrade": "美食餐饮",
            "storeFirsttrade": "1",
            "isPlatform": 0,
            "urlType": null,
            "storeArea": "四川省成都市温江区"
        },
        {
            "id": 305,
            "applyTime": null,
            "images": "http://a.renlairenwang.com/@/default/all/0/c537296129594a49833bc849b72be1f9.png?e=1548403364&token=2AhnhkQR1HJCFA2_2EcYNi515fzL1tLagon38laH:wM44dIAk4TRE5bOx6Z27m19L0tU=",
            "runingTime": null,
            "url": null,
            "storeId": 150,
            "status": 2,
            "unitPrice": null,
            "countPrice": null,
            "outTime": null,
            "adverType": "1",
            "bayNumber": null,
            "remark": null,
            "storeName": "大唐酒楼",
            "storeType": "公司",
            "localtion": "0",
            "playstatus": null,
            "sid": null,
            "storeMerchantNum": "150",
            "commodityTypeId": null,
            "ticket": 0.0,
            "countTicket": 0.0,
            "putawayTime": null,
            "commodityId": null,
            "commodityName": null,
            "newRetail": 0,
            "typeManageFirstTrade": "美食餐饮",
            "storeFirsttrade": "1",
            "isPlatform": 0,
            "urlType": null,
            "storeArea": "四川省成都市温江区"
        },
        {
            "id": 307,
            "applyTime": null,
            "images": "http://a.renlairenwang.com/@/default/all/0/035e35554ed7445bb96b2df966a05abc.png?e=1548403480&token=2AhnhkQR1HJCFA2_2EcYNi515fzL1tLagon38laH:haxDAyJAtzEr632zsCgkKvOfgMo=",
            "runingTime": null,
            "url": null,
            "storeId": 150,
            "status": 2,
            "unitPrice": null,
            "countPrice": null,
            "outTime": null,
            "adverType": "1",
            "bayNumber": null,
            "remark": null,
            "storeName": "大唐酒楼",
            "storeType": "公司",
            "localtion": "0",
            "playstatus": null,
            "sid": null,
            "storeMerchantNum": "150",
            "commodityTypeId": null,
            "ticket": 0.0,
            "countTicket": 0.0,
            "putawayTime": null,
            "commodityId": null,
            "commodityName": null,
            "newRetail": 0,
            "typeManageFirstTrade": "美食餐饮",
            "storeFirsttrade": "1",
            "isPlatform": 0,
            "urlType": null,
            "storeArea": "四川省成都市温江区"
        },
        {
            "id": 318,
            "applyTime": null,
            "images": "http://a.renlairenwang.com/@/default/all/0/95ab7d9ab05140e083602f43e0e8f6d0.jpeg?e=1548656597&token=2AhnhkQR1HJCFA2_2EcYNi515fzL1tLagon38laH:QwlLLay2uLaZTi35qMVwpXP2yZQ=",
            "runingTime": null,
            "url": null,
            "storeId": 145,
            "status": 2,
            "unitPrice": null,
            "countPrice": null,
            "outTime": null,
            "adverType": "1",
            "bayNumber": null,
            "remark": null,
            "storeName": "享厨房",
            "storeType": "公司",
            "localtion": "0",
            "playstatus": null,
            "sid": null,
            "storeMerchantNum": "145",
            "commodityTypeId": null,
            "ticket": 0.0,
            "countTicket": 0.0,
            "putawayTime": null,
            "commodityId": null,
            "commodityName": null,
            "newRetail": 0,
            "typeManageFirstTrade": "美食餐饮",
            "storeFirsttrade": "1",
            "isPlatform": 0,
            "urlType": null,
            "storeArea": "四川省成都市武侯区"
        },
        {
            "id": 336,
            "applyTime": null,
            "images": "http://a.renlairenwang.com/@/default/all/0/b579bc19d9d0449d966c0a13ce185411.jpeg?e=1549958437&token=2AhnhkQR1HJCFA2_2EcYNi515fzL1tLagon38laH:GXkHtryjR9mtkXkx3Nukv0CeF-c=",
            "runingTime": null,
            "url": "",
            "storeId": 156,
            "status": 2,
            "unitPrice": null,
            "countPrice": null,
            "outTime": null,
            "adverType": "1",
            "bayNumber": null,
            "remark": null,
            "storeName": "自留田·西北菜",
            "storeType": "公司",
            "localtion": "0",
            "playstatus": null,
            "sid": null,
            "storeMerchantNum": "156",
            "commodityTypeId": null,
            "ticket": 0.0,
            "countTicket": 0.0,
            "putawayTime": null,
            "commodityId": null,
            "commodityName": null,
            "newRetail": 0,
            "typeManageFirstTrade": "美食餐饮",
            "storeFirsttrade": "1",
            "isPlatform": 0,
            "urlType": null,
            "storeArea": "四川省成都市武侯区"
        },
        {
            "id": 358,
            "applyTime": null,
            "images": "http://a.renlairenwang.com/@/default/all/0/e4ba652e47e14544a49143a9bc08d6c9.jpeg?e=1550049151&token=2AhnhkQR1HJCFA2_2EcYNi515fzL1tLagon38laH:977vP8CICHQsWPErIDOT-KqOSUs=",
            "runingTime": null,
            "url": null,
            "storeId": 158,
            "status": 2,
            "unitPrice": null,
            "countPrice": null,
            "outTime": null,
            "adverType": "1",
            "bayNumber": null,
            "remark": null,
            "storeName": "钓青凫",
            "storeType": "公司",
            "localtion": "0",
            "playstatus": null,
            "sid": null,
            "storeMerchantNum": "158",
            "commodityTypeId": null,
            "ticket": 0.0,
            "countTicket": 0.0,
            "putawayTime": null,
            "commodityId": null,
            "commodityName": null,
            "newRetail": 0,
            "typeManageFirstTrade": "美食餐饮",
            "storeFirsttrade": "1",
            "isPlatform": 0,
            "urlType": null,
            "storeArea": "四川省成都市武侯区"
        }
    ],
    "data2": null
}